…
  for (t in 1:(max_time - 1)){
    x[t+1] <- exp_growth(x[t],r)
  }
  
  pop_data <- data_frame(time = 1:max_time, population_size = x)
  pop_data
  
  
}

simulate(41,10,1.5)
```

    ## # A tibble: 41 x 2
    ##     time population_size
    ##    <int>           <dbl>
    ##  1     1            10  
    ##  2     2            15  
    ##  3     3            22.5
    ##  4     4            33.8
    ##  5     5            50.6
    ##  6     6            75.9
    ##  7     7           114. 
    ##  8     8           171. 
    ##  9     9           256. 
    ## 10    10           384. 
    ## # ... with 31 more rows
…
